58849.000000000000 7575.000000000000 0.001144699985 87.902999877930 359.989990234375 69.713996887207 290.290008544922 150.000000000000 1.840000033379 1.840000033379 1.279999971390 1.000000000000
58849.000000000000, 7574.777075276591, 0.001254171950, 87.902932719725, 359.989985916849, 73.311954407210, 293.252509885770, 150.000000000000, 1.840000033379, 1.840000033379, 1.279999971390, 1.000000000000
58849.000000000000, 7574.108565818532, 0.001328401789, 87.902804841238, 359.989963435246, 79.021372690634, 294.102971374674, 150.000000000000, 1.840000033379, 1.840000033379, 1.279999971390, 1.000000000000
58849.000000000000, 7573.029908196975, 0.001362600951, 87.902624330490, 359.989910189764, 86.274173591004, 293.408909099824, 150.000000000000, 1.840000033379, 1.840000033379, 1.279999971390, 1.000000000000
58849.000000000000, 7571.598051960769, 0.001356560430, 87.902402461114, 359.989816268101, 94.775198065087, 291.464980708475, 150.000000000000, 1.840000033379, 1.840000033379, 1.279999971390, 1.000000000000
58849.000000000000, 7569.888442161844, 0.001313171612, 87.902151999285, 359.989674715053, 104.396587338220, 288.398629796718, 150.000000000000, 1.840000033379, 1.840000033379, 1.279999971390, 1.000000000000
58849.000000000000, 7567.991130061836, 0.001237489176, 87.901885496489, 359.989480978117, 115.125743093257, 284.222146735575, 150.000000000000, 1.840000033379, 1.840000033379, 1.279999971390, 1.000000000000
58849.000000000000, 7566.006179244506, 0.001136040196, 87.901614257125, 359.989231863209, 127.047061703319, 278.850952010102, 150.000000000000, 1.840000033379, 1.840000033379, 1.279999971390, 1.000000000000
58849.000000000000, 7564.038369596064, 0.001016283963, 87.901348345583, 359.988924674456, 140.350658929038, 272.094883356313, 150.000000000000, 1.840000033379, 1.840000033379, 1.279999971390, 1.000000000000
58849.000000000000, 7562.191338276259, 0.000886265930, 87.901097434269, 359.988557192153, 155.372041531730, 263.618528998150, 150.000000000000, 1.840000033379, 1.840000033379, 1.279999971390, 1.000000000000
58849.000000000000, 7560.561566827876, 0.000754653953, 87.900871814038, 359.988128718414, 172.673011252379, 252.860318050461, 150.000000000000, 1.840000033379, 1.840000033379, 1.279999971390, 1.000000000000
58849.000000000000, 7559.232858437764, 0.000631506410, 87.900682781211, 359.987641798942, 193.153111696895, 238.921057878428, 150.000000000000, 1.840000033379, 1.840000033379, 1.279999971390, 1.000000000000
58849.000000000000, 7558.271973961073, 0.000530065497, 87.900541957917, 359.987103764844, 218.018238615240, 220.595298747271, 150.000000000000, 1.840000033379, 1.840000033379, 1.279999971390, 1.000000000000
58849.000000000000, 7557.725834871586, 0.000468184487, 87.900459703120, 359.986527213745, 247.894856760895, 197.257088014282, 150.000000000000, 1.840000033379, 1.840000033379, 1.279999971390, 1.000000000000
58849.000000000000, 7557.620253287088, 0.000462749605, 87.900443282911, 359.985929007786, 280.557278440450, 171.132662664417, 150.000000000000, 1.840000033379, 1.840000033379, 1.279999971390, 1.000000000000
58849.000000000000, 7557.959737231747, 0.000514963880, 87.900495595238, 359.985328065860, 311.131543697536, 147.096544717743, 150.000000000000, 1.840000033379, 1.840000033379, 1.279999971390, 1.000000000000
58849.000000000000, 7558.727776844044, 0.000608929650, 87.900614923909, 359.984742786527, 336.852420124817, 127.914520556474, 150.000000000000, 1.840000033379, 1.840000033379, 1.279999971390, 1.000000000000
58849.000000000000, 7559.887240416902, 0.000726468533, 87.900795634346, 359.984189048918, 358.086933667608, 113.220091025939, 150.000000000000, 1.840000033379, 1.840000033379, 1.279999971390, 1.000000000000
58849.000000000000, 7561.380986812994, 0.000854238436, 87.901029262888, 359.983679357720, 16.037425197862, 101.811392554492, 150.000000000000, 1.840000033379, 1.840000033379, 1.279999971390, 1.000000000000
58849.000000000000, 7563.133258580140, 0.000982538609, 87.901305362266, 359.983223054969, 31.642085568020, 92.750635662582, 150.000000000000, 1.840000033379, 1.840000033379, 1.279999971390, 1.000000000000
58849.000000000000, 7565.052567576380, 0.001103197710, 87.901611780544, 359.982826996850, 45.484183549857, 85.454847201597, 150.000000000000, 1.840000033379, 1.840000033379, 1.279999971390, 1.000000000000
58849.000000000000, 7567.036487531406, 0.001208529028, 87.901934551624, 359.982495967013, 57.905590701520, 79.582319035138, 150.000000000000, 1.840000033379, 1.840000033379, 1.279999971390, 1.000000000000
58849.000000000000, 7568.978133258331, 0.001291175317, 87.902257934398, 359.982232416309, 69.099269099936, 74.940103278949, 150.000000000000, 1.840000033379, 1.840000033379, 1.279999971390, 1.000000000000
58849.000000000000, 7570.773444811705, 0.001344465142, 87.902565122801, 359.982035657359, 79.159032696993, 71.434249712857, 150.000000000000, 1.840000033379, 1.840000033379, 1.279999971390, 1.000000000000
58849.000000000000, 7572.328048749099, 0.001363001733, 87.902839764619, 359.981901064161, 88.096479162872, 69.052888110853, 150.000000000000, 1.840000033379, 1.840000033379, 1.279999971390, 1.000000000000
58849.000000000000, 7573.562628543489, 0.001343328805, 87.903067908184, 359.981819885956, 95.831450900942, 67.875793619048, 150.000000000000, 1.840000033379, 1.840000033379, 1.279999971390, 1.000000000000
58849.000000000000, 7574.416322068532, 0.001284674895, 87.903239661476, 359.981779961056, 102.153617752792, 68.112834316012, 150.000000000000, 1.840000033379, 1.840000033379, 1.279999971390, 1.000000000000
58849.000000000000, 7574.848373539816, 0.001189997606, 87.903349907912, 359.981767122766, 106.642366479283, 70.184110247080, 150.000000000000, 1.840000033379, 1.840000033379, 1.279999971390, 1.000000000000
58849.000000000000, 7574.838734417509, 0.001067888392, 87.903397853996, 359.981766727979, 108.525920822596, 74.860855812079, 150.000000000000, 1.840000033379, 1.840000033379, 1.279999971390, 1.000000000000
58849.000000000000, 7574.388314005381, 0.000936382835, 87.903385747395, 359.981764722374, 106.513392490765, 83.433407524719, 150.000000000000, 1.840000033379, 1.840000033379, 1.279999971390, 1.000000000000
58849.000000000000, 7573.519167512874, 0.000829247993, 87.903317486066, 359.981747979848, 99.020457924480, 97.485545350056, 150.000000000000, 1.840000033379, 1.840000033379, 1.279999971390, 1.000000000000
58849.000000000000, 7572.274352822934, 0.000797043734, 87.903197831314, 359.981704121679, 86.196998041629, 116.866875547919, 150.000000000000, 1.840000033379, 1.840000033379, 1.279999971390, 1.000000000000
58849.000000000000, 7570.716830292819, 0.000878589734, 87.903032550422, 359.981621345146, 72.765324672192, 136.854631247752, 150.000000000000, 1.840000033379, 1.840000033379, 1.279999971390, 1.000000000000
58849.000000000000, 7568.926836140326, 0.001062754683, 87.902829264651, 359.981488788519, 63.947796805101, 152.226085827273, 150.000000000000, 1.840000033379, 1.840000033379, 1.279999971390, 1.000000000000
58849.000000000000, 7566.997596589146, 0.001308181091, 87.902598363235, 359.981297624015, 60.396548259144, 162.328850842388, 150.000000000000, 1.840000033379, 1.840000033379, 1.279999971390, 1.000000000000
58849.000000000000, 7565.029813598279, 0.001577581251, 87.902353278505, 359.981042598276, 60.550735718189, 168.723645312991, 150.000000000000, 1.840000033379, 1.840000033379, 1.279999971390, 1.000000000000
58849.000000000000, 7563.125729702983, 0.001844422203, 87.902109724152, 359.980723390753, 62.999163618183, 172.821676187956, 150.000000000000, 1.840000033379, 1.840000033379, 1.279999971390, 1.000000000000
58849.000000000000, 7561.383573679730, 0.002089567486, 87.901884006602, 359.980345132267, 66.846867552357, 175.518050553169, 150.000000000000, 1.840000033379, 1.840000033379, 1.279999971390, 1.000000000000
58849.000000000000, 7559.892838989348, 0.002298538584, 87.901690963515, 359.979917737820, 71.557647832380, 177.349230497332, 150.000000000000, 1.840000033379, 1.840000033379, 1.279999971390, 1.000000000000
58849.000000000000, 7558.730384817342, 0.002460220802, 87.901542245810, 359.979454205041, 76.801563817468, 178.645524843937, 150.000000000000, 1.840000033379, 1.840000033379, 1.279999971390, 1.000000000000
58849.000000000000, 7557.957061852881, 0.002566385189, 87.901445477011, 359.978968463210, 82.361943623631, 179.624063599476, 150.000000000000, 1.840000033379, 1.840000033379, 1.279999971390, 1.000000000000
58849.000000000000, 7557.614611818502, 0.002611618288, 87.901404407222, 359.978473522198, 88.081624476446, 180.442539766527, 150.000000000000, 1.840000033379, 1.840000033379, 1.279999971390, 1.000000000000
58849.000000000000, 7557.722919497580, 0.002593440221, 87.901419746339, 359.977980492169, 93.829969638312, 181.232168864153, 150.000000000000, 1.840000033379, 1.840000033379, 1.279999971390, 1.000000000000
58849.000000000000, 7558.278074962293, 0.002512463675, 87.901490120297, 359.977498628072, 99.479308387020, 182.121219109937, 150.000000000000, 1.840000033379, 1.840000033379, 1.279999971390, 1.000000000000
58849.000000000000, 7559.251867693742, 0.002372487464, 87.901612644323, 359.977036093046, 104.883105216391, 183.256806195246, 150.000000000000, 1.840000033379, 1.840000033379, 1.279999971390, 1.000000000000
58849.000000000000, 7560.593146920711, 0.002180483347, 87.901782897959, 359.976600855290, 109.848544810717, 184.832271511881, 150.000000000000, 1.840000033379, 1.840000033379, 1.279999971390, 1.000000000000
58849.000000000000, 7562.231021655335, 0.001946541739, 87.901994455703, 359.976201137037, 114.093411893892, 187.130269368964, 150.000000000000, 1.840000033379, 1.840000033379, 1.279999971390, 1.000000000000
58849.000000000000, 7564.079385590207, 0.001683995774, 87.902238386124, 359.975845106406, 117.170410306479, 190.598424531771, 150.000000000000, 1.840000033379, 1.840000033379, 1.279999971390, 1.000000000000
58849.000000000000, 7566.042001635497, 0.001410171038, 87.902503160147, 359.975539890831, 118.333510299697, 195.982971429972, 150.000000000000, 1.840000033379, 1.840000033379, 1.279999971390, 1.000000000000
58849.000000000000, 7568.017496559045, 0.001148525969, 87.902775206505, 359.975290309643, 116.343671571775, 204.523026714288, 150.000000000000, 1.840000033379, 1.840000033379, 1.279999971390, 1.000000000000
58849.000000000000, 7569.904005743969, 0.000932645263, 87.903040034136, 359.975097828665, 109.473221287232, 217.946211265501, 150.000000000000, 1.840000033379, 1.840000033379, 1.279999971390, 1.000000000000
58849.000000000000, 7571.603619834483, 0.000806586089, 87.903283575606, 359.974960102943, 96.982182942753, 236.992324209043, 150.000000000000, 1.840000033379, 1.840000033379, 1.279999971390, 1.000000000000
58849.000000000000, 7573.026952700596, 0.000800157540, 87.903493327372, 359.974871185271, 82.644692884453, 257.886930997953, 150.000000000000, 1.840000033379, 1.840000033379, 1.279999971390, 1.000000000000
58849.000000000000, 7574.097964268922, 0.000890269643, 87.903659005827, 359.974822194052, 72.637361684013, 274.453012049820, 150.000000000000, 1.840000033379, 1.840000033379, 1.279999971390, 1.000000000000
58849.000000000000, 7574.758741726375, 0.001022442177, 87.903772718233, 359.974802104038, 68.699720379531, 284.950534158157, 150.000000000000, 1.840000033379, 1.840000033379, 1.279999971390, 1.000000000000
