58849,7578,0.0000000000001,87.9,76.5,0,356.73,150,1.84,1.84,1.28,1
58849,7578,0.0000000000001,87.9,76.5,0,350.18,150,1.84,1.84,1.28,1
58849,7578,0.0000000000001,87.9,76.5,0,343.64,150,1.84,1.84,1.28,1
58849,7578,0.0000000000001,87.9,76.5,0,337.09,150,1.84,1.84,1.28,1
58849,7578,0.0000000000001,87.9,76.5,0,330.55,150,1.84,1.84,1.28,1
58849,7578,0.0000000000001,87.9,76.5,0,324,150,1.84,1.84,1.28,1
58849,7578,0.0000000000001,87.9,76.5,0,317.45,150,1.84,1.84,1.28,1
58849,7578,0.0000000000001,87.9,76.5,0,310.91,150,1.84,1.84,1.28,1
58849,7578,0.0000000000001,87.9,76.5,0,304.36,150,1.84,1.84,1.28,1
58849,7578,0.0000000000001,87.9,76.5,0,297.82,150,1.84,1.84,1.28,1
58849,7578,0.0000000000001,87.9,76.5,0,291.27,150,1.84,1.84,1.28,1
58849,7578,0.0000000000001,87.9,76.5,0,284.73,150,1.84,1.84,1.28,1
58849,7578,0.0000000000001,87.9,76.5,0,278.18,150,1.84,1.84,1.28,1
58849,7578,0.0000000000001,87.9,76.5,0,271.64,150,1.84,1.84,1.28,1
58849,7578,0.0000000000001,87.9,76.5,0,265.09,150,1.84,1.84,1.28,1
58849,7578,0.0000000000001,87.9,76.5,0,258.55,150,1.84,1.84,1.28,1
58849,7578,0.0000000000001,87.9,76.5,0,252,150,1.84,1.84,1.28,1
58849,7578,0.0000000000001,87.9,76.5,0,245.45,150,1.84,1.84,1.28,1
58849,7578,0.0000000000001,87.9,76.5,0,238.91,150,1.84,1.84,1.28,1
58849,7578,0.0000000000001,87.9,76.5,0,232.36,150,1.84,1.84,1.28,1
58849,7578,0.0000000000001,87.9,76.5,0,225.82,150,1.84,1.84,1.28,1
58849,7578,0.0000000000001,87.9,76.5,0,219.27,150,1.84,1.84,1.28,1
58849,7578,0.0000000000001,87.9,76.5,0,212.73,150,1.84,1.84,1.28,1
58849,7578,0.0000000000001,87.9,76.5,0,206.18,150,1.84,1.84,1.28,1
58849,7578,0.0000000000001,87.9,76.5,0,199.64,150,1.84,1.84,1.28,1
58849,7578,0.0000000000001,87.9,76.5,0,193.09,150,1.84,1.84,1.28,1
58849,7578,0.0000000000001,87.9,76.5,0,186.55,150,1.84,1.84,1.28,1
58849,7578,0.0000000000001,87.9,76.5,0,180,150,1.84,1.84,1.28,1
58849,7578,0.0000000000001,87.9,76.5,0,173.45,150,1.84,1.84,1.28,1
58849,7578,0.0000000000001,87.9,76.5,0,166.91,150,1.84,1.84,1.28,1
58849,7578,0.0000000000001,87.9,76.5,0,160.36,150,1.84,1.84,1.28,1
58849,7578,0.0000000000001,87.9,76.5,0,153.82,150,1.84,1.84,1.28,1
58849,7578,0.0000000000001,87.9,76.5,0,147.27,150,1.84,1.84,1.28,1
58849,7578,0.0000000000001,87.9,76.5,0,140.73,150,1.84,1.84,1.28,1
58849,7578,0.0000000000001,87.9,76.5,0,134.18,150,1.84,1.84,1.28,1
58849,7578,0.0000000000001,87.9,76.5,0,127.64,150,1.84,1.84,1.28,1
58849,7578,0.0000000000001,87.9,76.5,0,121.09,150,1.84,1.84,1.28,1
58849,7578,0.0000000000001,87.9,76.5,0,114.55,150,1.84,1.84,1.28,1
58849,7578,0.0000000000001,87.9,76.5,0,108,150,1.84,1.84,1.28,1
58849,7578,0.0000000000001,87.9,76.5,0,101.45,150,1.84,1.84,1.28,1
58849,7578,0.0000000000001,87.9,76.5,0,94.91,150,1.84,1.84,1.28,1
58849,7578,0.0000000000001,87.9,76.5,0,88.36,150,1.84,1.84,1.28,1
58849,7578,0.0000000000001,87.9,76.5,0,81.82,150,1.84,1.84,1.28,1
58849,7578,0.0000000000001,87.9,76.5,0,75.27,150,1.84,1.84,1.28,1
58849,7578,0.0000000000001,87.9,76.5,0,68.73,150,1.84,1.84,1.28,1
58849,7578,0.0000000000001,87.9,76.5,0,62.18,150,1.84,1.84,1.28,1
58849,7578,0.0000000000001,87.9,76.5,0,55.64,150,1.84,1.84,1.28,1
58849,7578,0.0000000000001,87.9,76.5,0,49.09,150,1.84,1.84,1.28,1
58849,7578,0.0000000000001,87.9,76.5,0,42.55,150,1.84,1.84,1.28,1
58849,7578,0.0000000000001,87.9,76.5,0,36,150,1.84,1.84,1.28,1
58849,7578,0.0000000000001,87.9,76.5,0,29.45,150,1.84,1.84,1.28,1
58849,7578,0.0000000000001,87.9,76.5,0,22.91,150,1.84,1.84,1.28,1
58849,7578,0.0000000000001,87.9,76.5,0,16.36,150,1.84,1.84,1.28,1
58849,7578,0.0000000000001,87.9,76.5,0,9.82,150,1.84,1.84,1.28,1
58849,7578,0.0000000000001,87.9,76.5,0,3.27,150,1.84,1.84,1.28,1
58849,7578,0.0000000000001,87.9,178.5,0,3.27,150,1.84,1.84,1.28,1
58849,7578,0.0000000000001,87.9,178.5,0,9.82,150,1.84,1.84,1.28,1
58849,7578,0.0000000000001,87.9,178.5,0,16.36,150,1.84,1.84,1.28,1
58849,7578,0.0000000000001,87.9,178.5,0,22.91,150,1.84,1.84,1.28,1
58849,7578,0.0000000000001,87.9,178.5,0,29.45,150,1.84,1.84,1.28,1
58849,7578,0.0000000000001,87.9,178.5,0,36,150,1.84,1.84,1.28,1
58849,7578,0.0000000000001,87.9,178.5,0,42.55,150,1.84,1.84,1.28,1
58849,7578,0.0000000000001,87.9,178.5,0,49.09,150,1.84,1.84,1.28,1
58849,7578,0.0000000000001,87.9,178.5,0,55.64,150,1.84,1.84,1.28,1
58849,7578,0.0000000000001,87.9,178.5,0,62.18,150,1.84,1.84,1.28,1
58849,7578,0.0000000000001,87.9,178.5,0,68.73,150,1.84,1.84,1.28,1
58849,7578,0.0000000000001,87.9,178.5,0,75.27,150,1.84,1.84,1.28,1
58849,7578,0.0000000000001,87.9,178.5,0,81.82,150,1.84,1.84,1.28,1
58849,7578,0.0000000000001,87.9,178.5,0,88.36,150,1.84,1.84,1.28,1
58849,7578,0.0000000000001,87.9,178.5,0,94.91,150,1.84,1.84,1.28,1
58849,7578,0.0000000000001,87.9,178.5,0,101.45,150,1.84,1.84,1.28,1
58849,7578,0.0000000000001,87.9,178.5,0,108,150,1.84,1.84,1.28,1
58849,7578,0.0000000000001,87.9,178.5,0,114.55,150,1.84,1.84,1.28,1
58849,7578,0.0000000000001,87.9,178.5,0,121.09,150,1.84,1.84,1.28,1
58849,7578,0.0000000000001,87.9,178.5,0,127.64,150,1.84,1.84,1.28,1
58849,7578,0.0000000000001,87.9,178.5,0,134.18,150,1.84,1.84,1.28,1
58849,7578,0.0000000000001,87.9,178.5,0,140.73,150,1.84,1.84,1.28,1
58849,7578,0.0000000000001,87.9,178.5,0,147.27,150,1.84,1.84,1.28,1
58849,7578,0.0000000000001,87.9,178.5,0,153.82,150,1.84,1.84,1.28,1
58849,7578,0.0000000000001,87.9,178.5,0,160.36,150,1.84,1.84,1.28,1
58849,7578,0.0000000000001,87.9,178.5,0,166.91,150,1.84,1.84,1.28,1
58849,7578,0.0000000000001,87.9,178.5,0,173.45,150,1.84,1.84,1.28,1
58849,7578,0.0000000000001,87.9,178.5,0,180,150,1.84,1.84,1.28,1
58849,7578,0.0000000000001,87.9,178.5,0,186.55,150,1.84,1.84,1.28,1
58849,7578,0.0000000000001,87.9,178.5,0,193.09,150,1.84,1.84,1.28,1
58849,7578,0.0000000000001,87.9,178.5,0,199.64,150,1.84,1.84,1.28,1
58849,7578,0.0000000000001,87.9,178.5,0,206.18,150,1.84,1.84,1.28,1
58849,7578,0.0000000000001,87.9,178.5,0,212.73,150,1.84,1.84,1.28,1
58849,7578,0.0000000000001,87.9,178.5,0,219.27,150,1.84,1.84,1.28,1
58849,7578,0.0000000000001,87.9,178.5,0,225.82,150,1.84,1.84,1.28,1
58849,7578,0.0000000000001,87.9,178.5,0,232.36,150,1.84,1.84,1.28,1
58849,7578,0.0000000000001,87.9,178.5,0,238.91,150,1.84,1.84,1.28,1
58849,7578,0.0000000000001,87.9,178.5,0,245.45,150,1.84,1.84,1.28,1
58849,7578,0.0000000000001,87.9,178.5,0,252,150,1.84,1.84,1.28,1
58849,7578,0.0000000000001,87.9,178.5,0,258.55,150,1.84,1.84,1.28,1
58849,7578,0.0000000000001,87.9,178.5,0,265.09,150,1.84,1.84,1.28,1
58849,7578,0.0000000000001,87.9,178.5,0,271.64,150,1.84,1.84,1.28,1
58849,7578,0.0000000000001,87.9,178.5,0,278.18,150,1.84,1.84,1.28,1
58849,7578,0.0000000000001,87.9,178.5,0,284.73,150,1.84,1.84,1.28,1
58849,7578,0.0000000000001,87.9,178.5,0,291.27,150,1.84,1.84,1.28,1
58849,7578,0.0000000000001,87.9,178.5,0,297.82,150,1.84,1.84,1.28,1
58849,7578,0.0000000000001,87.9,178.5,0,304.36,150,1.84,1.84,1.28,1
58849,7578,0.0000000000001,87.9,178.5,0,310.91,150,1.84,1.84,1.28,1
58849,7578,0.0000000000001,87.9,178.5,0,317.45,150,1.84,1.84,1.28,1
58849,7578,0.0000000000001,87.9,178.5,0,324,150,1.84,1.84,1.28,1
58849,7578,0.0000000000001,87.9,178.5,0,330.55,150,1.84,1.84,1.28,1
58849,7578,0.0000000000001,87.9,178.5,0,337.09,150,1.84,1.84,1.28,1
58849,7578,0.0000000000001,87.9,178.5,0,343.64,150,1.84,1.84,1.28,1
58849,7578,0.0000000000001,87.9,178.5,0,350.18,150,1.84,1.84,1.28,1
58849,7578,0.0000000000001,87.9,178.5,0,356.73,150,1.84,1.84,1.28,1
