5.884800000000000E+04, 8.045167345768581E+03, 1.459106351654486E-01, 9.077410556295703E+01, 3.599378535561261E+02, 7.635135790354906E+01, 2.864501660466211E+02,150,1.84,1.84,1.28,1
5.884800000000000E+04, 9.912361121056287E+03, 2.661673431441094E-01, 8.713477166880594E+01, 1.801220128808107E+02, 1.461762517288427E+02, 9.644962580805790E+01,150,1.84,1.84,1.28,1
5.884800000000000E+04, 9.031525778793766E+03, 2.050973603957470E-01, 7.505859317697102E+01, 8.259430203811969E-01, 3.152954822600068E+02, 3.540598680934736E+02,150,1.84,1.84,1.28,1
5.884800000000000E+04, 8.627432586760038E+03, 1.771995559691049E-01, 1.754882219688998E+02, 3.563048261111887E+02, 2.982690024905164E+02, 9.590046573749157E+01,150,1.84,1.84,1.28,1
5.884800000000000E+04, 1.313429246080834E+04, 4.365333586859920E-01, 5.444506705911750E+01, 6.907239464091854E-01, 3.376025875812944E+02, 9.186718763669360E+01,150,1.84,1.84,1.28,1
5.884800000000000E+04, 1.024802825648192E+04, 2.974718534855179E-01, 8.287290483013140E+01, 2.903320317732240E-01, 3.229320800011948E+02, 2.466524247757891E+02,150,1.84,1.84,1.28,1
5.884800000000000E+04, 1.405954111670967E+04, 5.042412079442257E-01, 1.105671154729176E+02, 1.795994885517983E+02, 2.202945067211868E+02, 2.737274200304664E+02,150,1.84,1.84,1.28,1
5.884800000000000E+04, 9.175634304628909E+03, 2.147278987478135E-01, 3.082532169773119E+01, 2.652087991177315E+00, 3.123900257134248E+02, 7.075000630393828E+01,150,1.84,1.84,1.28,1
