58848,8448.9093076494445995194837450981,0.1664064645579212409209901579743,82.3977041737575461866072146222,0.51997384727249784663882792301592,303.00174807044328417759970761836,349.50471997892708486688206903636,150,1.8400000000000000799360577730113,1.8400000000000000799360577730113,1.2800000000000000266453525910038,1
58848,8488.3058837341177422786131501198,0.19023855413256815505285146628012,34.721081307090727818831510376185,3.2427779869524959721616141905542,290.3270160886945063793973531574,7.9560391472274183399804314831272,150,1.8400000000000000799360577730113,1.8400000000000000799360577730113,1.2800000000000000266453525910038,1
58848,15690.750839836311570252291858196,0.56988821286474244942610312136821,171.96683321696437474201957229525,359.02354787782093126224935986102,312.43615054392205365729751065373,220.83125960032239731845038477331,150,1.8400000000000000799360577730113,1.8400000000000000799360577730113,1.2800000000000000266453525910038,1
58848,14848.98139060293033253401517868,0.54828324335923561694272621025448,151.94129536199676522301160730422,359.06865863488127388336579315364,311.11700387273435808310750871897,85.166722498608649516427249182016,150,1.8400000000000000799360577730113,1.8400000000000000799360577730113,1.2800000000000000266453525910038,1
58848,19122.92571661438341834582388401,0.64179038901360740965174045413733,137.29986495037306326594261918217,359.4927059069386814371682703495,318.54879315798109473689692094922,265.36189788636391995169105939567,150,1.8400000000000000799360577730113,1.8400000000000000799360577730113,1.2800000000000000266453525910038,1
