5.883600000000000E+04, 8.038058599246066E+03, 1.459932473442276E-01, 9.077466592773814E+01, 3.591912603872960E+02, 1.037391318318072E+02, 1.066236571702469E+02,150,1.84,1.84,1.28,1
5.883600000000000E+04, 9.912605609784710E+03, 2.658802226720740E-01, 8.713645120766876E+01, 1.815946540996580E+02, 1.610583842844675E+02, 2.916340245539542E+02,150,1.84,1.84,1.28,1
5.883600000000000E+04, 9.038687672875421E+03, 2.063540787348480E-01, 7.506070896367473E+01, 1.077175418101917E+01, 3.283345139075933E+02, 2.758164503625326E+02,150,1.84,1.84,1.28,1
5.883600000000000E+04, 8.629236134129507E+03, 1.778161007723506E-01, 1.754914703574509E+02, 3.120822198968828E+02, 2.100664724105179E+02, 5.818867705229196E+01,150,1.84,1.84,1.28,1
5.883600000000000E+04, 1.314432516318894E+04, 4.365713802196199E-01, 5.445690274567962E+01, 9.180496514193942E+00, 3.326298789855055E+02, 1.964444936300862E+01,150,1.84,1.84,1.28,1
5.883600000000000E+04, 1.023810141368236E+04, 2.978644311222315E-01, 8.286805595453413E+01, 3.689758320634740E+00, 3.354436643273964E+02, 8.162173230368367E+01,150,1.84,1.84,1.28,1
5.883600000000000E+04, 1.406384758817172E+04, 5.041060247684944E-01, 1.105545144031669E+02, 1.748633693683128E+02, 2.228444393604867E+02, 1.035109194134490E+02,150,1.84,1.84,1.28,1
5.883600000000000E+04, 9.173549124037479E+03, 2.143752852300310E-01, 3.082133250068089E+01, 3.434623835079755E+01, 2.625286928901699E+02, 2.196583607913784E+02,150,1.84,1.84,1.28,1
